R-Assignment_Markdown
…
Part I

Data inspection

There are many ways to inspect the data. Below is a list of functions we can do. However, I masked certain fucntions because they will produce too large outputs. These actions can be done for smaller sized dateframes. head() is showing the similiar results as by looking at the data itself (both are showing the tibble of the first few rows), so I masked it as well.

Geno

## # A tibble: 2,782 x 986
##    Sample_ID JG_OTU  Group abph1.20 abph1.22 ae1.3 ae1.4 ae1.5 an1.4 ba1.6
##    <chr>     <chr>   <chr> <chr>    <chr>    <chr> <chr> <chr> <chr> <chr>
##  1 SL-15     T-aust~ TRIPS ?/?      ?/?      T/T   G/G   T/T   C/C   ?/?  
##  2 SL-16     T-aust~ TRIPS ?/?      ?/?      T/T   ?/?   T/T   C/C   A/G  
##  3 SL-11     T-brav~ TRIPS ?/?      ?/?      T/T   G/G   T/T   ?/?   G/G  
##  4 SL-12     T-brav~ TRIPS ?/?      ?/?      T/T   G/G   T/T   C/C   G/G  
##  5 SL-18     T-cund  TRIPS ?/?      ?/?      T/T   G/G   T/T   C/C   ?/?  
##  6 SL-2      T-dact~ TRIPS ?/?      ?/?      T/T   G/G   T/T   C/C   A/G  
##  7 SL-4      T-dact~ TRIPS ?/?      ?/?      T/T   G/G   T/T   C/C   G/G  
##  8 SL-6      T-dact~ TRIPS ?/?      ?/?      T/T   G/G   T/T   C/C   ?/?  
##  9 SL-7      T-dact~ TRIPS ?/?      ?/?      T/T   G/G   T/T   C/C   G/G  
## 10 SL-5      T-dact~ TRIPS ?/?      ?/?      T/T   G/G   T/T   C/C   ?/?  
## # ... with 2,772 more rows, and 976 more variables: ba1.9 <chr>,
## #   bt2.5 <chr>, bt2.7 <chr>, bt2.8 <chr>, Fea2.1 <chr>, Fea2.5 <chr>,
## #   id1.3 <chr>, lg2.11 <chr>, lg2.2 <chr>, pbf1.1 <chr>, pbf1.2 <chr>,
## #   pbf1.3 <chr>, pbf1.5 <chr>, pbf1.6 <chr>, pbf1.7 <chr>, pbf1.8 <chr>,
## #   PZA00003.11 <chr>, PZA00004.2 <chr>, PZA00005.8 <chr>,
## #   PZA00005.9 <chr>, PZA00006.13 <chr>, PZA00006.14 <chr>,
## #   PZA00008.1 <chr>, PZA00010.5 <chr>, PZA00013.10 <chr>,
## #   PZA00013.11 <chr>, PZA00013.9 <chr>, PZA00015.4 <chr>,
## #   PZA00017.1 <chr>, PZA00018.5 <chr>, PZA00029.11 <chr>,
…
## [1] TRUE

is.matrix(Geno)

## [1] FALSE

is.data.frame(Geno)

## [1] TRUE

#colnames(Geno)

SNP

## # A tibble: 983 x 15
##    SNP_ID   cdv_marker_id Chromosome Position  alt_pos mult_positions
##    <chr>            <int> <chr>      <chr>     <chr>   <chr>         
##  1 abph1.20          5976 2          27403404  <NA>    <NA>          
##  2 abph1.22          5978 2          27403892  <NA>    <NA>          
##  3 ae1.3             6605 5          167889790 <NA>    <NA>          
##  4 ae1.4             6606 5          167889682 <NA>    <NA>          
##  5 ae1.5             6607 5          167889821 <NA>    <NA>          
##  6 an1.4             5982 1          240498509 <NA>    <NA>          
##  7 ba1.6             3463 3          181362952 <NA>    <NA>          
##  8 ba1.9             3466 3          181362666 <NA>    <NA>          
##  9 bt2.5             5983 4          66290049  <NA>    <NA>          
## 10 bt2.7             5985 4          66290994  <NA>    <NA>          
## # ... with 973 more rows, and 9 more variables: amplicon <chr>,
## #   cdv_map_feature.name <chr>, gene <chr>, `candidate/random` <chr>,
## #   Genaissance_daa_id <int>, Sequenom_daa_id <int>,
## #   count_amplicons <int>, count_cmf <int>, count_gene <int>
…
SNP Data trimming and subset Geno file for Maize and Teosinte files

#Creat reduced SNP file with only SNP_ID [1], Chromosome [3], and Position [4]
RedSNP <- SNP[c(1,3,4)] # or use select(SNP, SNP_ID, Chromosome, Position)

#subset the Geno file into Maize and Teosinte
Maize <- filter(Geno, Group =='ZMMIL'|Group=='ZMMLR'|Group=='ZMMMR')
Maize <- Maize[,c(-2,-3)] # To remove unused cols. Or use select(Maize,-(JG_OTU, Group))
Maize

## # A tibble: 1,573 x 984
##    Sample_ID abph1.20 abph1.22 ae1.3 ae1.4 ae1.5 an1.4 ba1.6 ba1.9 bt2.5
##    <chr>     <chr>    <chr>    <chr> <chr> <chr> <chr> <chr> <chr> <chr>
##  1 ZDP_0752a C/G      A/A      T/T   G/G   C/C   C/G   G/G   G/G   C/C  
##  2 ZDP_0793a C/G      A/A      T/T   G/G   C/T   C/G   A/G   G/T   C/C  
##  3 ZDP_0612a C/C      A/A      T/T   G/G   C/C   C/C   G/G   ?/?   C/C  
##  4 ZDP_0602a C/G      A/A      G/T   A/G   C/T   C/C   G/G   G/G   C/C  
##  5 ZDP_0581a C/C      A/A      T/T   G/G   C/T   C/C   G/G   G/G   C/C  
##  6 ZDP_0552a C/G      A/A      T/T   G/G   C/T   C/C   G/G   G/G   C/C  
##  7 ZDP_0543a C/C      A/A      T/T   G/G   C/C   C/C   G/G   G/G   C/C  
##  8 ZDP_0042a C/C      A/A      T/T   G/G   C/T   C/C   G/G   G/G   C/C  
##  9 ZDP_0121a C/C      A/A      T/T   ?/?   C/T   C/C   G/G   G/G   C/C  
## 10 ZDP_0101b C/C      A/A      G/T   A/G   T/T   C/C   G/G   G/G   C/C  
## # ... with 1,563 more rows, and 974 more variables: bt2.7 <chr>,
## #   bt2.8 <chr>, Fea2.1 <chr>, Fea2.5 <chr>, id1.3 <chr>, lg2.11 <chr>,
## #   lg2.2 <chr>, pbf1.1 <chr>, pbf1.2 <chr>, pbf1.3 <chr>, pbf1.5 <chr>,
## #   pbf1.6 <chr>, pbf1.7 <chr>, pbf1.8 <chr>, PZA00003.11 <chr>,
## #   PZA00004.2 <chr>, PZA00005.8 <chr>, PZA00005.9 <chr>,
## #   PZA00006.13 <chr>, PZA00006.14 <chr>, PZA00008.1 <chr>,
## #   PZA00010.5 <chr>, PZA00013.10 <chr>, PZA00013.11 <chr>,
## #   PZA00013.9 <chr>, PZA00015.4 <chr>, PZA00017.1 <chr>,
## #   PZA00018.5 <chr>, PZA00029.11 <chr>, PZA00029.12 <chr>,
…
Teosinte <- filter(Geno, Group == 'ZMPBA'| Group=='ZMPIL'| Group=='ZMPJA')
Teosinte <- Teosinte[,c(-2,-3)] # To remove unused cols
Teosinte

## # A tibble: 975 x 984
##    Sample_ID abph1.20 abph1.22 ae1.3 ae1.4 ae1.5 an1.4 ba1.6 ba1.9 bt2.5
##    <chr>     <chr>    <chr>    <chr> <chr> <chr> <chr> <chr> <chr> <chr>
##  1 S0881     C/G      A/A      T/T   G/G   T/T   C/C   A/G   G/G   T/T  
##  2 S1057     C/G      A/A      G/T   A/G   T/T   C/C   A/A   G/G   C/T  
##  3 S1087     G/G      A/A      T/T   G/G   T/T   C/C   A/A   G/G   C/T  
##  4 S1689     G/G      A/A      T/T   G/G   T/T   C/C   A/A   G/G   C/C  
##  5 S1697     C/G      A/A      T/T   G/G   T/T   C/C   A/A   G/G   C/C  
##  6 S1698     C/G      A/A      T/T   A/G   T/T   C/C   A/A   G/G   C/T  
##  7 S1703     G/G      A/A      T/T   G/G   T/T   C/C   A/A   G/G   C/C  
##  8 S1704     G/G      A/A      T/T   G/G   C/T   C/C   A/A   T/T   C/T  
##  9 TA057     G/G      A/A      T/T   G/G   C/T   C/C   A/A   G/T   C/C  
## 10 TA137     G/G      A/A      T/T   G/G   T/T   C/C   A/A   G/T   C/T  
## # ... with 965 more rows, and 974 more variables: bt2.7 <chr>,
## #   bt2.8 <chr>, Fea2.1 <chr>, Fea2.5 <chr>, id1.3 <chr>, lg2.11 <chr>,
## #   lg2.2 <chr>, pbf1.1 <chr>, pbf1.2 <chr>, pbf1.3 <chr>, pbf1.5 <chr>,
## #   pbf1.6 <chr>, pbf1.7 <chr>, pbf1.8 <chr>, PZA00003.11 <chr>,
## #   PZA00004.2 <chr>, PZA00005.8 <chr>, PZA00005.9 <chr>,
## #   PZA00006.13 <chr>, PZA00006.14 <chr>, PZA00008.1 <chr>,
## #   PZA00010.5 <chr>, PZA00013.10 <chr>, PZA00013.11 <chr>,
## #   PZA00013.9 <chr>, PZA00015.4 <chr>, PZA00017.1 <chr>,
## #   PZA00018.5 <chr>, PZA00029.11 <chr>, PZA00029.12 <chr>,
…
Transpose

Transposed files will lose the header, so I took the colnames from the orginal Maize file (vector) and combine with the transposed file using cbind (column bind), to add in the first column. cbind tends to convert character columns to fators unleass stringAsFactors = F is applied. as.tibble was used to easlily view the dataframe that has been transposed and cbinded. After transposition, there is neither the row names, nor the column names specified. So the first row was used to set as the colnames for tMaize. A duplicate row was removed with tMaize = tMaize[-1, ]. In order to joining files later, the first cell was replaced from Sample_ID to SNP_ID.

tMaize<- t(Maize)
tMaize<-cbind(colnames(Maize),tMaize,stringsAsFactors = F)
tMaize<-as.tibble(tMaize)
colnames(tMaize)<- tMaize[1,]
tMaizee = tMaize[-1, ]
colnames(tMaize)[1] <- "SNP_ID"
tMaize

## # A tibble: 984 x 1,575
##    SNP_ID    ZDP_0752a ZDP_0793a ZDP_0612a ZDP_0602a ZDP_0581a ZDP_0552a
##    <chr>     <chr>     <chr>     <chr>     <chr>     <chr>     <chr>    
##  1 Sample_ID ZDP_0752a ZDP_0793a ZDP_0612a ZDP_0602a ZDP_0581a ZDP_0552a
##  2 abph1.20  C/G       C/G       C/C       C/G       C/C       C/G      
##  3 abph1.22  A/A       A/A       A/A       A/A       A/A       A/A      
##  4 ae1.3     T/T       T/T       T/T       G/T       T/T       T/T      
##  5 ae1.4     G/G       G/G       G/G       A/G       G/G       G/G      
##  6 ae1.5     C/C       C/T       C/C       C/T       C/T       C/T      
##  7 an1.4     C/G       C/G       C/C       C/C       C/C       C/C      
##  8 ba1.6     G/G       A/G       G/G       G/G       G/G       G/G      
##  9 ba1.9     G/G       G/T       ?/?       G/G       G/G       G/G      
## 10 bt2.5     C/C       C/C       C/C       C/C       C/C       C/C      
## # ... with 974 more rows, and 1,568 more variables: ZDP_0543a <chr>,
## #   ZDP_0042a <chr>, ZDP_0121a <chr>, ZDP_0101b <chr>, ZDP_0087a <chr>,
## #   ZDP_0033a <chr>, ZDP_0373b <chr>, ZDP_0168a <chr>, ZDP_0169a <chr>,
## #   ZDP_0517b <chr>, ZDP_1098a <chr>, ZDP_0591a <chr>, ZDP_0258a <chr>,
## #   ZDP_0009a <chr>, ZDP_0016a <chr>, ZDP_0010a <chr>, ZDP_0018a <chr>,
## #   ZDP_0647b <chr>, ZDP_1064b <chr>, ZDP_1053a <chr>, ZDP_1445b <chr>,
## #   ZDP_0163a <chr>, ZDP_0164a <chr>, ZDP_0166a <chr>, ZDP_0839a <chr>,
## #   ZDP_0849a <chr>, ZDP_0858b <chr>, ZDP_0184b <chr>, ZDP_0179a <chr>,
## #   ZDP_0180a <chr>, ZDP_1021a <chr>, ZDP_0181a <chr>, ZDP_1004a <chr>,
…
tTeosinte<- t(Teosinte)
tTeosinte<-cbind(colnames(Teosinte),tTeosinte,stringsAsFactors = F)
tTeosinte<-as.tibble(tTeosinte)
colnames(tTeosinte)<- tTeosinte[1,]
tTeosinte = tTeosinte[-1, ]
colnames(tTeosinte)[1] <- "SNP_ID"
tTeosinte

## # A tibble: 983 x 977
##    SNP_ID   S0881 S1057 S1087 S1689 S1697 S1698 S1703 S1704 TA057 TA137
##    <chr>    <chr> <chr> <chr> <chr> <chr> <chr> <chr> <chr> <chr> <chr>
##  1 abph1.20 C/G   C/G   G/G   G/G   C/G   C/G   G/G   G/G   G/G   G/G  
##  2 abph1.22 A/A   A/A   A/A   A/A   A/A   A/A   A/A   A/A   A/A   A/A  
##  3 ae1.3    T/T   G/T   T/T   T/T   T/T   T/T   T/T   T/T   T/T   T/T  
##  4 ae1.4    G/G   A/G   G/G   G/G   G/G   A/G   G/G   G/G   G/G   G/G  
##  5 ae1.5    T/T   T/T   T/T   T/T   T/T   T/T   T/T   C/T   C/T   T/T  
##  6 an1.4    C/C   C/C   C/C   C/C   C/C   C/C   C/C   C/C   C/C   C/C  
##  7 ba1.6    A/G   A/A   A/A   A/A   A/A   A/A   A/A   A/A   A/A   A/A  
##  8 ba1.9    G/G   G/G   G/G   G/G   G/G   G/G   G/G   T/T   G/T   G/T  
##  9 bt2.5    T/T   C/T   C/T   C/C   C/C   C/T   C/C   C/T   C/C   C/T  
## 10 bt2.7    A/A   A/A   A/A   A/A   A/A   A/A   A/A   A/A   A/A   A/A  
## # ... with 973 more rows, and 966 more variables: TA153 <chr>,
## #   TA205 <chr>, TA217 <chr>, TA242 <chr>, TA285 <chr>, TA293 <chr>,
## #   TAMex0091.1 <chr>, TAMex0153.1 <chr>, TAMex0238.1 <chr>,
## #   TAMex0396.1 <chr>, TAMex0446.1 <chr>, TAMex0455.2 <chr>,
## #   TAMex0520.1 <chr>, TAMex0608.5 <chr>, TAMex0624.1 <chr>,
## #   TAMex0643.1 <chr>, TAMex0775.2 <chr>, TAMex0930.1 <chr>,
## #   TAMex1083.1 <chr>, TAMex1111.1 <chr>, TAMex1195.2 <chr>,
## #   TAMex1222.2 <chr>, TAMex1308.1 <chr>, TAMex1321.1 <chr>,
## #   TAMex1344.2 <chr>, TAMex1422.2 <chr>, TAMex1488.1 <chr>,
…
Merge SNP file with Maize and Teosinte files

I used merge function here, which is base R function. However, inner_join function from dplyr can be applied, so that as.tibble can be dismissed. SNP_tMaize1<- inner_join(RedSNP,tMaize, by= "SNP_ID")

SNP_tMaize<- merge (RedSNP,tMaize, by= "SNP_ID") #method #1
SNP_tMaize<-as.tibble(SNP_tMaize)
SNP_tMaize

## # A tibble: 983 x 1,577
##    SNP_ID   Chromosome Position  ZDP_0752a ZDP_0793a ZDP_0612a ZDP_0602a
##    <chr>    <chr>      <chr>     <chr>     <chr>     <chr>     <chr>    
##  1 abph1.20 2          27403404  C/G       C/G       C/C       C/G      
##  2 abph1.22 2          27403892  A/A       A/A       A/A       A/A      
##  3 ae1.3    5          167889790 T/T       T/T       T/T       G/T      
##  4 ae1.4    5          167889682 G/G       G/G       G/G       A/G      
##  5 ae1.5    5          167889821 C/C       C/T       C/C       C/T      
##  6 an1.4    1          240498509 C/G       C/G       C/C       C/C      
##  7 ba1.6    3          181362952 G/G       A/G       G/G       G/G      
##  8 ba1.9    3          181362666 G/G       G/T       ?/?       G/G      
##  9 bt2.5    4          66290049  C/C       C/C       C/C       C/C      
## 10 bt2.7    4          66290994  ?/?       ?/?       G/G       G/G      
## # ... with 973 more rows, and 1,570 more variables: ZDP_0581a <chr>,
## #   ZDP_0552a <chr>, ZDP_0543a <chr>, ZDP_0042a <chr>, ZDP_0121a <chr>,
## #   ZDP_0101b <chr>, ZDP_0087a <chr>, ZDP_0033a <chr>, ZDP_0373b <chr>,
## #   ZDP_0168a <chr>, ZDP_0169a <chr>, ZDP_0517b <chr>, ZDP_1098a <chr>,
## #   ZDP_0591a <chr>, ZDP_0258a <chr>, ZDP_0009a <chr>, ZDP_0016a <chr>,
## #   ZDP_0010a <chr>, ZDP_0018a <chr>, ZDP_0647b <chr>, ZDP_1064b <chr>,
## #   ZDP_1053a <chr>, ZDP_1445b <chr>, ZDP_0163a <chr>, ZDP_0164a <chr>,
## #   ZDP_0166a <chr>, ZDP_0839a <chr>, ZDP_0849a <chr>, ZDP_0858b <chr>,
## #   ZDP_0184b <chr>, ZDP_0179a <chr>, ZDP_0180a <chr>, ZDP_1021a <chr>,
…
SNP_tTeosinte<- inner_join(RedSNP,tTeosinte, by= "SNP_ID") #method #2
SNP_tTeosinte

## # A tibble: 983 x 979
##    SNP_ID   Chromosome Position  S0881 S1057 S1087 S1689 S1697 S1698 S1703
##    <chr>    <chr>      <chr>     <chr> <chr> <chr> <chr> <chr> <chr> <chr>
##  1 abph1.20 2          27403404  C/G   C/G   G/G   G/G   C/G   C/G   G/G  
##  2 abph1.22 2          27403892  A/A   A/A   A/A   A/A   A/A   A/A   A/A  
##  3 ae1.3    5          167889790 T/T   G/T   T/T   T/T   T/T   T/T   T/T  
##  4 ae1.4    5          167889682 G/G   A/G   G/G   G/G   G/G   A/G   G/G  
##  5 ae1.5    5          167889821 T/T   T/T   T/T   T/T   T/T   T/T   T/T  
##  6 an1.4    1          240498509 C/C   C/C   C/C   C/C   C/C   C/C   C/C  
##  7 ba1.6    3          181362952 A/G   A/A   A/A   A/A   A/A   A/A   A/A  
##  8 ba1.9    3          181362666 G/G   G/G   G/G   G/G   G/G   G/G   G/G  
##  9 bt2.5    4          66290049  T/T   C/T   C/T   C/C   C/C   C/T   C/C  
## 10 bt2.7    4          66290994  A/A   A/A   A/A   A/A   A/A   A/A   A/A  
## # ... with 973 more rows, and 969 more variables: S1704 <chr>,
## #   TA057 <chr>, TA137 <chr>, TA153 <chr>, TA205 <chr>, TA217 <chr>,
## #   TA242 <chr>, TA285 <chr>, TA293 <chr>, TAMex0091.1 <chr>,
## #   TAMex0153.1 <chr>, TAMex0238.1 <chr>, TAMex0396.1 <chr>,
## #   TAMex0446.1 <chr>, TAMex0455.2 <chr>, TAMex0520.1 <chr>,
## #   TAMex0608.5 <chr>, TAMex0624.1 <chr>, TAMex0643.1 <chr>,
## #   TAMex0775.2 <chr>, TAMex0930.1 <chr>, TAMex1083.1 <chr>,
## #   TAMex1111.1 <chr>, TAMex1195.2 <chr>, TAMex1222.2 <chr>,
## #   TAMex1308.1 <chr>, TAMex1321.1 <chr>, TAMex1344.2 <chr>,
…
Trim files to remove multiple or unknown positions from the files

SNP_tMaize<- filter(SNP_tMaize, Chromosome != 'multiple', Chromosome != 'unknown', Position != 'multiple')
SNP_tMaize$Chromosome <- as.integer(SNP_tMaize$Chromosome)
SNP_tMaize$Position <- as.integer(SNP_tMaize$Position)
SNP_tMaize

## # A tibble: 939 x 1,577
##    SNP_ID   Chromosome  Position ZDP_0752a ZDP_0793a ZDP_0612a ZDP_0602a
##    <chr>         <int>     <int> <chr>     <chr>     <chr>     <chr>    
##  1 abph1.20          2  27403404 C/G       C/G       C/C       C/G      
##  2 abph1.22          2  27403892 A/A       A/A       A/A       A/A      
##  3 ae1.3             5 167889790 T/T       T/T       T/T       G/T      
##  4 ae1.4             5 167889682 G/G       G/G       G/G       A/G      
##  5 ae1.5             5 167889821 C/C       C/T       C/C       C/T      
##  6 an1.4             1 240498509 C/G       C/G       C/C       C/C      
##  7 ba1.6             3 181362952 G/G       A/G       G/G       G/G      
##  8 ba1.9             3 181362666 G/G       G/T       ?/?       G/G      
##  9 bt2.5             4  66290049 C/C       C/C       C/C       C/C      
## 10 bt2.7             4  66290994 ?/?       ?/?       G/G       G/G      
## # ... with 929 more rows, and 1,570 more variables: ZDP_0581a <chr>,
## #   ZDP_0552a <chr>, ZDP_0543a <chr>, ZDP_0042a <chr>, ZDP_0121a <chr>,
## #   ZDP_0101b <chr>, ZDP_0087a <chr>, ZDP_0033a <chr>, ZDP_0373b <chr>,
## #   ZDP_0168a <chr>, ZDP_0169a <chr>, ZDP_0517b <chr>, ZDP_1098a <chr>,
## #   ZDP_0591a <chr>, ZDP_0258a <chr>, ZDP_0009a <chr>, ZDP_0016a <chr>,
## #   ZDP_0010a <chr>, ZDP_0018a <chr>, ZDP_0647b <chr>, ZDP_1064b <chr>,
## #   ZDP_1053a <chr>, ZDP_1445b <chr>, ZDP_0163a <chr>, ZDP_0164a <chr>,
## #   ZDP_0166a <chr>, ZDP_0839a <chr>, ZDP_0849a <chr>, ZDP_0858b <chr>,
## #   ZDP_0184b <chr>, ZDP_0179a <chr>, ZDP_0180a <chr>, ZDP_1021a <chr>,
…
SNP_tTeosinte<- filter(SNP_tTeosinte, Chromosome != 'multiple', Chromosome != 'unknown', Position != 'multiple')
SNP_tTeosinte$Chromosome <- as.integer(SNP_tTeosinte$Chromosome)
SNP_tTeosinte$Position <- as.integer(SNP_tTeosinte$Position)
SNP_tTeosinte

## # A tibble: 939 x 979
##    SNP_ID   Chromosome  Position S0881 S1057 S1087 S1689 S1697 S1698 S1703
##    <chr>         <int>     <int> <chr> <chr> <chr> <chr> <chr> <chr> <chr>
##  1 abph1.20          2  27403404 C/G   C/G   G/G   G/G   C/G   C/G   G/G  
##  2 abph1.22          2  27403892 A/A   A/A   A/A   A/A   A/A   A/A   A/A  
##  3 ae1.3             5 167889790 T/T   G/T   T/T   T/T   T/T   T/T   T/T  
##  4 ae1.4             5 167889682 G/G   A/G   G/G   G/G   G/G   A/G   G/G  
##  5 ae1.5             5 167889821 T/T   T/T   T/T   T/T   T/T   T/T   T/T  
##  6 an1.4             1 240498509 C/C   C/C   C/C   C/C   C/C   C/C   C/C  
##  7 ba1.6             3 181362952 A/G   A/A   A/A   A/A   A/A   A/A   A/A  
##  8 ba1.9             3 181362666 G/G   G/G   G/G   G/G   G/G   G/G   G/G  
##  9 bt2.5             4  66290049 T/T   C/T   C/T   C/C   C/C   C/T   C/C  
## 10 bt2.7             4  66290994 A/A   A/A   A/A   A/A   A/A   A/A   A/A  
## # ... with 929 more rows, and 969 more variables: S1704 <chr>,
## #   TA057 <chr>, TA137 <chr>, TA153 <chr>, TA205 <chr>, TA217 <chr>,
## #   TA242 <chr>, TA285 <chr>, TA293 <chr>, TAMex0091.1 <chr>,
## #   TAMex0153.1 <chr>, TAMex0238.1 <chr>, TAMex0396.1 <chr>,
## #   TAMex0446.1 <chr>, TAMex0455.2 <chr>, TAMex0520.1 <chr>,
## #   TAMex0608.5 <chr>, TAMex0624.1 <chr>, TAMex0643.1 <chr>,
## #   TAMex0775.2 <chr>, TAMex0930.1 <chr>, TAMex1083.1 <chr>,
## #   TAMex1111.1 <chr>, TAMex1195.2 <chr>, TAMex1222.2 <chr>,
## #   TAMex1308.1 <chr>, TAMex1321.1 <chr>, TAMex1344.2 <chr>,
…
